[
    {
        "model": "organization.organization",
        "pk": 1,
        "fields": {
            "name": "ACE Mentor Program",
            "description": "ACE is an after school program that introduces you to careers in architecture and engineering",
            "free": true,
            "tuition": "$0",
            "rating": 4,
            "category": "STEM",
            "address": "55 main street, New York, NY",
            "contact_number": "571-297-6869",
            "website": "http://www.acementor.org/",
            "imageURL": "http://www.acementor.org/files/3814/7463/4821/ACEimage.jpg"
        }
    },
    {
        "model": "organization.organization",
        "pk": 2,
        "fields": {
            "name": "All Star Code",
            "description": "All Star Code (ASC), our flagship program, is a six-week summer program for high school rising male sophomores, juniors, and seniors here in New York City. The 2015 Summer Intensive will consist of 2 cohorts of 40 students total. The curriculum includes a rigorous computer science course, but also a soft-skills curriculum (leadership, innovation, team-work, etc.) that would help our students stand out years later when they enter the talent pipeline of top companies. ASC’s purpose is to give young African-American men an early introduction to the world of technology, providing a mode of entry to an industry that has been closed to them. (To twist the old Walt Disney line: “If you can’t see it, you can’t dream it.”)",
            "free": true,
            "tuition": "$0",
            "rating": 4.5,
            "category": "STEM",
            "address": "601 W. 26th Street, Suite 325, New York, NY 10001",
            "contact_number": null,
            "website": "http://www.allstarcode.org/",
            "imageURL": "http://www.allstarcode.org/wp-content/uploads/2014/03/%C2%A9Boat-Ashore-Photography-24-IMG_425511.23.jpg"
        }
    },
    {
        "model": "organization.organization",
        "pk": 3,
        "fields": {
            "name": "ARTS MENTORING PROGRAM @ FREE ARTS NYC",
            "description": "An arts program that includes painting, dance, drama, writing, music, sculpture, photography and other creative outlets year round",
            "free": true,
            "tuition": "$0",
            "rating": 5,
            "category": "Arts/Humanities",
            "address": "1431 Broadway, 8th Floor New York, NY 10018 United States",
            "contact_number": "212-974-9092",
            "website": "http://www.freeartsnyc.org/",
            "imageURL": "http://www.freeartsnyc.org/wp-content/uploads/2016/08/AnthonyHart_1.jpg"
        }
    },
    {
        "model": "organization.organization",
        "pk": 4,
        "fields": {
            "name": "BREAKTHROUGH NEW YORK",
            "description": "Take enrichment classes, visit museums, and work with mentors on various issues including high school placement",
            "free": true,
            "tuition": "$0",
            "rating": 3,
            "category": "Arts/Humanities",
            "address": "123 William Street, 4th Floor, New York, NY 10038",
            "contact_number": "646-747-2869",
            "website": "http://www.btny.org/",
            "imageURL": "https://static1.squarespace.com/static/53d93edfe4b0fa5b6962b343/t/53e257f3e4b08ac0a8edadd4/1407342615002/?format=300w"
        }
    },
    {
        "model": "organization.organization",
        "pk": 5,
        "fields": {
            "name": "COLLEGE NOW",
            "description": "A college prep program that matches public high schools with one or more of the 17 City University of New York (CUNY) colleges during the summer",
            "free": true,
            "tuition": "$0",
            "rating": 2,
            "category": "Academic Prep",
            "address": "16 Court Street, 3rd Floor Brooklyn, NY 11201",
            "contact_number": "718-997-4297",
            "website": "http://collegenow.cuny.edu/",
            "imageURL": "http://collegenow.cuny.edu/wp-content/gallery/home-page/home_feature_getstarted.jpg"
        }
    },
    {
        "model": "organization.organization",
        "pk": 6,
        "fields": {
            "name": "EVERYONE READING",
            "description": "After-school tutoring and summer intensive tutoring program. ",
            "free": true,
            "tuition": "$0",
            "rating": 4.5,
            "category": "Academic Prep",
            "address": "30 Broad Street, Suite 402 New York, NY 10004",
            "contact_number": "917-903-2954",
            "website": "http://everyonereading.org/",
            "imageURL": "http://everyonereading.org/wp-content/uploads/2011/11/kids.png"
        }
    },
    {
        "model": "organization.organization",
        "pk": 7,
        "fields": {
            "name": "Street Hockey",
            "description": "NYC Parks and the New York Rangers provide free youth street hockey clinics, presented by Coca-Cola, Get the Ball Rolling.  The clinics are for boys and girls ages 5-17, and provide instruction on the basics of street hockey, as well as tips on the importance of exercising and eating a balanced diet. All equipment is provided and no prior experience is necessary to participate.  Sessions run from December to February in the winter and July to August in the summer.  Registration is on a rolling basis beginning prior to the start of each session.",
            "free": true,
            "tuition": "$0",
            "rating": 4.5,
            "category": "Sports",
            "address": "232 West 60th Street Manhattan",
            "contact_number": null,
            "website": "https://www.nycgovparks.org/reg/youth-street-hockey",
            "imageURL": "https://www.nycgovparks.org/pagefiles/60/street-hockey.jpg"
        }
    },
    {
        "model": "organization.organization",
        "pk": 8,
        "fields": {
            "name": "CHKA Martial Arts",
            "description": "CHKA’s classes in Kenpo Karate equip children of all ages with physical conditioning and skills which allow them to defend themselves. Moreover, the classes teach children to have the strength of character to avoid situations. By learning mastery of ancient martial arts techniques, children gain awareness of themselves and their surroundings, concentration, self confidence, self discipline, and important physical fitness . . . and fun! Classes include Lil Turtles (ages 3-4), Lil Ninjas (ages 4-7), Junior Samurai (ages 7-11), and Teens (ages 11-15).",
            "free": false,
            "tuition": "$150 for 100 days",
            "rating": 4.5,
            "category": "Sports",
            "address": "34 Avenue A, 2nd Floor New York, NY 10009",
            "contact_number": "646-692-6155",
            "website": "http://www.chka.org/",
            "imageURL": "http://www.chka.org/wp-content/uploads/2013/03/10580018_798124923552079_2735686423289523283_n.jpg"
        }
    },
    {
        "model": "organization.organization",
        "pk": 9,
        "fields": {
            "name": "Piano Lessons NYC",
            "description": "Piano Lessons NYC’s mission is to offer affordable private piano lessons in New York City and many areas of Brooklyn, Queens and Long Island for all ages and levels. We offer personalized one-on-one piano lessons either in the student’s home or at the National Opera Center conveniently located at 330 7th Ave. Piano Lessons NYC helps guide and foster students in a range of different musical styles including: classical, pop, jazz and musical theatre.",
            "free": false,
            "tuition": "$45 - 70+ per lesson",
            "rating": 3,
            "category": "Arts/Humanities",
            "address": "330 7th Avenue New York, NY 10001",
            "contact_number": "347-302-1342",
            "website": "http://www.pianolessonsnyc.net/",
            "imageURL": "http://www.pianolessonsnyc.net/wp-content/uploads/2014/10/pianolessonsnyc.net-recital-group-380x240.jpg"
        }
    },

    {
        "model": "organization.organization",
        "pk": 10,
        "fields": {
            "name": "PENCIL",
            "description": "PENCIL is the leader in creating innovative and impactful models of ongoing collaboration between business and public schools.",
            "free": true,
            "tuition": "$0",
            "rating": 4.0,
            "category": "Career",
            "address": "30 West 26th Street, 5th Floor New York, NY 10010",
            "contact_number": "646-638-0565",
            "website": "https://pencil.org/",
            "imageURL": "https://pencil.org/wp-content/uploads/2015/06/pencil_tag_4color_2014.png"
        }
    },
    {
        "model": "organization.organization",
        "pk": 11,
        "fields": {
            "name": "FIRST Robotics",
            "description": "As part of a FIRST team, kids get to apply math and science knowledge, solve problems, make decisions, communicate complex ideas, collaborate as part of a team, exercise leadership, manage resources, create and execute business plans – all essential skills in any successful technological enterprise.",
            "free": true,
            "tuition": "$0",
            "rating": 3.5,
            "category": "Academic Prep",
            "address": "101 Avenue of the Americas 18th Floor New York, NY 10013",
            "contact_number": "800-432-6351",
            "website": "http://www.nycfirst.org/",
            "imageURL": "http://oklahomafirst.org/FIRSTvert_RGB.jpg"
        }
    },
    {
        "model": "organization.organization",
        "pk": 12,
        "fields": {
            "name": "Upstairs After School Art Program",
            "description": "Upstairs at 83 Hester is a weekly children’s art program that takes a process-oriented approach to art making. The classes introduce participants to ways of seeing, sensing, thinking, and making that are explored through the arts. Together we will collaborate on projects, encounter works by contemporary artists, and learn new vocabularies. Guest artists whose work relates to our course theme will visit to co-teach lessons.",
            "free": true,
            "tuition": "$0",
            "rating": 4.0,
            "category": "Arts/Humanities",
            "address": "83A Hester Street, New York, NY, 10002",
            "contact_number": "917-415-6152",
            "website": "http://www.upstairs83.com/",
            "imageURL": "http://www.upstairs83.com/uploads/1/1/0/4/11043497/6970685.jpg?489"
        }
    },
    {
        "model": "organization.organization",
        "pk": 13,
        "fields": {
            "name": "BELL",
            "description": "BELL exists to transform the academic achievements, self-confidence, and life trajectories of children living in under-resourced communities.",
            "free": true,
            "tuition": "$0",
            "rating": 3.0,
            "category": "Arts/Humanities",
            "address": "1460 Broadway New York, NY 10036",
            "contact_number": "646-588-7900",
            "website": "http://www.experiencebell.org/",
            "imageURL": "https://engage.experiencebell.org/templates/bell/original/images/logo.png"
        }
    },
    {
        "model": "organization.organization",
        "pk": 14,
        "fields": {
            "name": "Columbia University Science Honors Program",
            "description": "College classes in physics, chemistry and biology during school year",
            "free": true,
            "tuition": "$0",
            "rating": 3,
            "category": "Academic Prep",
            "address": "550 West 120th Street New York, NY 10027",
            "contact_number": "(212) 854-3354",
            "website": "http://www.columbia.edu/cu/shp/",
            "imageURL": "http://www.columbia.edu/cu/shp/M100.jpg"
        }
    },
    {
        "model": "organization.organization",
        "pk": 15,
        "fields": {
            "name": " Baruch College STEP (Science and Technology Entry Program) Academy",
            "description": "A pre-college science enrichment program for talented middle and high school students in NYC",
            "free": true,
            "tuition": "$0",
            "rating": 3,
            "category": "STEM",
            "address": "55 Lexington Avenue, New York, NY 10010-5585",
            "contact_number": "646-312-4298",
            "website": "http://www.baruch.cuny.edu/step/",
            "imageURL": "http://www.baruch.cuny.edu/step/images/WebsiteAnatomy.jpg"
        }
    },
    {
        "model": "organization.organization",
        "pk": 16,
        "fields": {
            "name": "Best Excellence in Science and Technology at NYU",
            "description": "A pre-college science enrichment program for talented middle and high school students in NYC",
            "free": true,
            "tuition": "$0",
            "rating": 3,
            "category": "STEM",
            "address": "18 Washington Place New York, NY 10003",
            "contact_number": "anna.ortegachavolla@nyu.edu",
            "website": "http://www.nyu.edu/admissions/undergraduate-admissions/how-to-apply/all-freshmen-applicants/opportunity-programs/middle-and-high-school-program.html",
            "imageURL": "http://www.nyu.edu/content/nyu/en/admissions/undergraduate-admissions/how-to-apply/all-freshmen-applicants/opportunity-programs/middle-and-high-school-program/jcr:content/2/par-right/nyuimage_0.img.1280.high.jpg/1471374748988.jpg"
        }
    },
    {
        "model": "organization.organization",
        "pk": 17,
        "fields": {
            "name": "Brooklyn Botanic Garden",
            "description": "Science classes in the spring and summer",
            "free": true,
            "tuition": "$0",
            "rating": 3,
            "category": "STEM",
            "address": "150 Eastern Parkway Brooklyn NY",
            "contact_number": "718-623-7200",
            "website": "http://www.bbg.org/learn",
            "imageURL": "http://www.bbg.org/img/uploads/learn/inline/eduindex_childrensclasses.jpg"
        }
      },
      {
            "model": "organization.organization",
            "pk": 18,
            "fields": {
              "name": "Breakthrough New York",
              "description": "Six-years of tutoring, classes and more to get ready for college. Runs year-round, including summers and the school year",
              "free": true,
              "tuition": "$0",
              "rating": 3,
              "category": "Academic Prep",
              "address": "123 William Street, 4th Floor, New York, NY 10038",
              "contact_number": "(646) 747-BTNY",
              "website": "http://www.btny.org",
              "imageURL": "https://static1.squarespace.com/static/53d93edfe4b0fa5b6962b343/53eed53ce4b0880c7d4f60bc/53eed53ee4b06d8748b67e88/1408161098135/IMG_2802.jpg?format=1000w"
            }
        },
        {
            "model": "organization.organization",
            "pk": 19,
            "fields": {
              "name": "Cooper Union Research Internship",
              "description": "A summer internship focused on engineering, math, chemistry, physics, and astronomy",
              "free": true,
              "tuition": "$0",
              "rating": 3,
              "category": "STEM",
              "address": "7 East 7th Street New York NY",
              "contact_number": "summerSTEM@cooper.edu",
              "website": "http://cooper.edu/engineering/summer-stem",
              "imageURL": "http://cooper.edu/sites/default/files/lead.jpg"
            }
        },
        {
            "model": "organization.organization",
            "pk": 20,
            "fields": {
              "name": "Top Honors",
              "description": "Free math help on Saturday mornings and Tuesday evenings during the school year",
              "free": true,
              "tuition": "$0",
              "rating": 3,
              "category": "STEM",
              "address": "154 W. 93rd St New York NY 10025",
              "contact_number": "info@tophonors.org",
              "website": "http://www.tophonors.org",
              "imageURL": "https://static1.squarespace.com/static/529d28e3e4b0690cc411294f/529e19f6e4b065d1f24f13e9/529e7c71e4b0b7aa2efa6616/1386118259125/home17.jpg?format=1000w"
            }
        },
        {
            "model": "organization.organization",
            "pk": 21,
            "fields": {
              "name": "CAT Youth Program",
              "description": "CAT Youth Theatre is a free, award-winning after school program that helps young people to thrive– on stage and in life.",
              "free": true,
              "tuition": "$0",
              "rating": 4,
              "category": "Arts/Humanities",
              "address": "101 W 31st St, New York, NY 10001",
              "contact_number": "Maureen.Donohue@cuny.edu",
              "website": "http://www.creativeartsteam.org/programs/cat-youth-theatre",
              "imageURL": "https://pbs.twimg.com/profile_images/652140627501690881/ZX9dQjhT.png"
            }
        },
        {
            "model": "organization.organization",
            "pk": 22,
            "fields": {
              "name": "Harlem RBI Program",
              "description": "Harlem RBI provides inner-city youth with opportunities to Play, Learn and Grow. We use the power of teams to Coach, Teach and Inspire youth to recognize their potential and realize their dreams.",
              "free": true,
              "tuition": "$0",
              "rating": 3.5,
              "category": "Sports",
              "address": "333 E 100th St, New York, NY 10029",
              "contact_number": "jpadilla@harlemrbi.org",
              "website": "http://www.harlemrbi.org/",
              "imageURL": "http://www.bronx.com/thumbnail.php?file=Harlem_RBI_544281797.png&size=article_medium"
            }
        }
]
